hw3_2/dump.vcd
$date
	Fri Feb 15 21:13:07 2019
$end
$version
	ModelSim Version 10.7c
$end
$timescale
	1ns
$end

$scope module rca_16b_bench $end
$var reg 17 ! A [16:0] $end
$var reg 17 " B [16:0] $end
$var reg 17 # Sumcalc [16:0] $end
$var reg 1 $ C_in $end
$var wire 1 % SUM [15] $end
$var wire 1 & SUM [14] $end
$var wire 1 ' SUM [13] $end
$var wire 1 ( SUM [12] $end
$var wire 1 ) SUM [11] $end
$var wire 1 * SUM [10] $end
$var wire 1 + SUM [9] $end
$var wire 1 , SUM [8] $end
$var wire 1 - SUM [7] $end
$var wire 1 . SUM [6] $end
$var wire 1 / SUM [5] $end
$var wire 1 0 SUM [4] $end
$var wire 1 1 SUM [3] $end
$var wire 1 2 SUM [2] $end
$var wire 1 3 SUM [1] $end
$var wire 1 4 SUM [0] $end
$var wire 1 5 CO $end
$var wire 1 6 Clk $end
$var wire 1 7 rst $end
$var wire 1 8 err $end

$scope module my_clkrst $end
$var reg 1 9 clk $end
$var reg 1 : rst $end
$var wire 1 8 err $end
$var integer 32 ; cycle_count $end
$upscope $end

$scope module DUT $end
$var parameter 32 < N $end
$var parameter 32 = N_4 $end
$var wire 1 > A [15] $end
$var wire 1 ? A [14] $end
$var wire 1 @ A [13] $end
$var wire 1 A A [12] $end
$var wire 1 B A [11] $end
$var wire 1 C A [10] $end
$var wire 1 D A [9] $end
$var wire 1 E A [8] $end
$var wire 1 F A [7] $end
$var wire 1 G A [6] $end
$var wire 1 H A [5] $end
$var wire 1 I A [4] $end
$var wire 1 J A [3] $end
$var wire 1 K A [2] $end
$var wire 1 L A [1] $end
$var wire 1 M A [0] $end
$var wire 1 N B [15] $end
$var wire 1 O B [14] $end
$var wire 1 P B [13] $end
$var wire 1 Q B [12] $end
$var wire 1 R B [11] $end
$var wire 1 S B [10] $end
$var wire 1 T B [9] $end
$var wire 1 U B [8] $end
$var wire 1 V B [7] $end
$var wire 1 W B [6] $end
$var wire 1 X B [5] $end
$var wire 1 Y B [4] $end
$var wire 1 Z B [3] $end
$var wire 1 [ B [2] $end
$var wire 1 \ B [1] $end
$var wire 1 ] B [0] $end
$var wire 1 ^ C_in $end
$var wire 1 % S [15] $end
$var wire 1 & S [14] $end
$var wire 1 ' S [13] $end
$var wire 1 ( S [12] $end
$var wire 1 ) S [11] $end
$var wire 1 * S [10] $end
$var wire 1 + S [9] $end
$var wire 1 , S [8] $end
$var wire 1 - S [7] $end
$var wire 1 . S [6] $end
$var wire 1 / S [5] $end
$var wire 1 0 S [4] $end
$var wire 1 1 S [3] $end
$var wire 1 2 S [2] $end
$var wire 1 3 S [1] $end
$var wire 1 4 S [0] $end
$var wire 1 5 C_out $end
$var wire 1 _ c_out [0] $end
$var wire 1 ` c_out [1] $end
$var wire 1 a c_out [2] $end

$scope module rca_lsb_4 $end
$var parameter 32 b N $end
$var wire 1 J A [3] $end
$var wire 1 K A [2] $end
$var wire 1 L A [1] $end
$var wire 1 M A [0] $end
$var wire 1 Z B [3] $end
$var wire 1 [ B [2] $end
$var wire 1 \ B [1] $end
$var wire 1 ] B [0] $end
$var wire 1 ^ C_in $end
$var wire 1 1 S [3] $end
$var wire 1 2 S [2] $end
$var wire 1 3 S [1] $end
$var wire 1 4 S [0] $end
$var wire 1 a C_out $end
$var wire 1 c c_out [0] $end
$var wire 1 d c_out [1] $end
$var wire 1 e c_out [2] $end

$scope module adder_1b_0 $end
$var wire 1 M A $end
$var wire 1 ] B $end
$var wire 1 ^ C_in $end
$var wire 1 4 S $end
$var wire 1 e C_out $end
$var wire 1 f w_a_xor_b $end
$var wire 1 g w_nand_a_b $end
$var wire 1 h w_nand_cin $end

$scope module xor_a_b $end
$var wire 1 M in1 $end
$var wire 1 ] in2 $end
$var wire 1 f out $end
$upscope $end

$scope module xor_cin_a_b $end
$var wire 1 ^ in1 $end
$var wire 1 f in2 $end
$var wire 1 4 out $end
$upscope $end

$scope module nand_a_b $end
$var wire 1 M in1 $end
$var wire 1 ] in2 $end
$var wire 1 g out $end
$upscope $end

$scope module nand_cin_a_xor_b $end
$var wire 1 f in1 $end
$var wire 1 ^ in2 $end
$var wire 1 h out $end
$upscope $end

$scope module nand_out $end
$var wire 1 g in1 $end
$var wire 1 h in2 $end
$var wire 1 e out $end
$upscope $end
$upscope $end

$scope module adder_1b_1 $end
$var wire 1 L A $end
$var wire 1 \ B $end
$var wire 1 e C_in $end
$var wire 1 3 S $end
$var wire 1 d C_out $end
$var wire 1 i w_a_xor_b $end
$var wire 1 j w_nand_a_b $end
$var wire 1 k w_nand_cin $end

$scope module xor_a_b $end
$var wire 1 L in1 $end
$var wire 1 \ in2 $end
$var wire 1 i out $end
$upscope $end

$scope module xor_cin_a_b $end
$var wire 1 e in1 $end
$var wire 1 i in2 $end
$var wire 1 3 out $end
$upscope $end

$scope module nand_a_b $end
$var wire 1 L in1 $end
$var wire 1 \ in2 $end
$var wire 1 j out $end
$upscope $end

$scope module nand_cin_a_xor_b $end
$var wire 1 i in1 $end
$var wire 1 e in2 $end
$var wire 1 k out $end
$upscope $end

$scope module nand_out $end
$var wire 1 j in1 $end
$var wire 1 k in2 $end
$var wire 1 d out $end
$upscope $end
$upscope $end

$scope module adder_1b_2 $end
$var wire 1 K A $end
$var wire 1 [ B $end
$var wire 1 d C_in $end
$var wire 1 2 S $end
$var wire 1 c C_out $end
$var wire 1 l w_a_xor_b $end
$var wire 1 m w_nand_a_b $end
$var wire 1 n w_nand_cin $end

$scope module xor_a_b $end
$var wire 1 K in1 $end
$var wire 1 [ in2 $end
$var wire 1 l out $end
$upscope $end

$scope module xor_cin_a_b $end
$var wire 1 d in1 $end
$var wire 1 l in2 $end
$var wire 1 2 out $end
$upscope $end

$scope module nand_a_b $end
$var wire 1 K in1 $end
$var wire 1 [ in2 $end
$var wire 1 m out $end
$upscope $end

$scope module nand_cin_a_xor_b $end
$var wire 1 l in1 $end
$var wire 1 d in2 $end
$var wire 1 n out $end
$upscope $end

$scope module nand_out $end
$var wire 1 m in1 $end
$var wire 1 n in2 $end
$var wire 1 c out $end
$upscope $end
$upscope $end

$scope module adder_1b_3 $end
$var wire 1 J A $end
$var wire 1 Z B $end
$var wire 1 c C_in $end
$var wire 1 1 S $end
$var wire 1 a C_out $end
$var wire 1 o w_a_xor_b $end
$var wire 1 p w_nand_a_b $end
$var wire 1 q w_nand_cin $end

$scope module xor_a_b $end
$var wire 1 J in1 $end
$var wire 1 Z in2 $end
$var wire 1 o out $end
$upscope $end

$scope module xor_cin_a_b $end
$var wire 1 c in1 $end
$var wire 1 o in2 $end
$var wire 1 1 out $end
$upscope $end

$scope module nand_a_b $end
$var wire 1 J in1 $end
$var wire 1 Z in2 $end
$var wire 1 p out $end
$upscope $end

$scope module nand_cin_a_xor_b $end
$var wire 1 o in1 $end
$var wire 1 c in2 $end
$var wire 1 q out $end
$upscope $end

$scope module nand_out $end
$var wire 1 p in1 $end
$var wire 1 q in2 $end
$var wire 1 a out $end
$upscope $end
$upscope $end
$upscope $end

$scope module rca_lsb_1_4 $end
$var parameter 32 r N $end
$var wire 1 F A [3] $end
$var wire 1 G A [2] $end
$var wire 1 H A [1] $end
$var wire 1 I A [0] $end
$var wire 1 V B [3] $end
$var wire 1 W B [2] $end
$var wire 1 X B [1] $end
$var wire 1 Y B [0] $end
$var wire 1 a C_in $end
$var wire 1 - S [3] $end
$var wire 1 . S [2] $end
$var wire 1 / S [1] $end
$var wire 1 0 S [0] $end
$var wire 1 ` C_out $end
$var wire 1 s c_out [0] $end
$var wire 1 t c_out [1] $end
$var wire 1 u c_out [2] $end

$scope module adder_1b_0 $end
$var wire 1 I A $end
$var wire 1 Y B $end
$var wire 1 a C_in $end
$var wire 1 0 S $end
$var wire 1 u C_out $end
$var wire 1 v w_a_xor_b $end
$var wire 1 w w_nand_a_b $end
$var wire 1 x w_nand_cin $end

$scope module xor_a_b $end
$var wire 1 I in1 $end
$var wire 1 Y in2 $end
$var wire 1 v out $end
$upscope $end

$scope module xor_cin_a_b $end
$var wire 1 a in1 $end
$var wire 1 v in2 $end
$var wire 1 0 out $end
$upscope $end

$scope module nand_a_b $end
$var wire 1 I in1 $end
$var wire 1 Y in2 $end
$var wire 1 w out $end
$upscope $end

$scope module nand_cin_a_xor_b $end
$var wire 1 v in1 $end
$var wire 1 a in2 $end
$var wire 1 x out $end
$upscope $end

$scope module nand_out $end
$var wire 1 w in1 $end
$var wire 1 x in2 $end
$var wire 1 u out $end
$upscope $end
$upscope $end

$scope module adder_1b_1 $end
$var wire 1 H A $end
$var wire 1 X B $end
$var wire 1 u C_in $end
$var wire 1 / S $end
$var wire 1 t C_out $end
$var wire 1 y w_a_xor_b $end
$var wire 1 z w_nand_a_b $end
$var wire 1 { w_nand_cin $end

$scope module xor_a_b $end
$var wire 1 H in1 $end
$var wire 1 X in2 $end
$var wire 1 y out $end
$upscope $end

$scope module xor_cin_a_b $end
$var wire 1 u in1 $end
$var wire 1 y in2 $end
$var wire 1 / out $end
$upscope $end

$scope module nand_a_b $end
$var wire 1 H in1 $end
$var wire 1 X in2 $end
$var wire 1 z out $end
$upscope $end

$scope module nand_cin_a_xor_b $end
$var wire 1 y in1 $end
$var wire 1 u in2 $end
$var wire 1 { out $end
$upscope $end

$scope module nand_out $end
$var wire 1 z in1 $end
$var wire 1 { in2 $end
$var wire 1 t out $end
$upscope $end
$upscope $end

$scope module adder_1b_2 $end
$var wire 1 G A $end
$var wire 1 W B $end
$var wire 1 t C_in $end
$var wire 1 . S $end
$var wire 1 s C_out $end
$var wire 1 | w_a_xor_b $end
$var wire 1 } w_nand_a_b $end
$var wire 1 ~ w_nand_cin $end

$scope module xor_a_b $end
$var wire 1 G in1 $end
$var wire 1 W in2 $end
$var wire 1 | out $end
$upscope $end

$scope module xor_cin_a_b $end
$var wire 1 t in1 $end
$var wire 1 | in2 $end
$var wire 1 . out $end
$upscope $end

$scope module nand_a_b $end
$var wire 1 G in1 $end
$var wire 1 W in2 $end
$var wire 1 } out $end
$upscope $end

$scope module nand_cin_a_xor_b $end
$var wire 1 | in1 $end
$var wire 1 t in2 $end
$var wire 1 ~ out $end
$upscope $end

$scope module nand_out $end
$var wire 1 } in1 $end
$var wire 1 ~ in2 $end
$var wire 1 s out $end
$upscope $end
$upscope $end

$scope module adder_1b_3 $end
$var wire 1 F A $end
$var wire 1 V B $end
$var wire 1 s C_in $end
$var wire 1 - S $end
$var wire 1 ` C_out $end
$var wire 1 !! w_a_xor_b $end
$var wire 1 "! w_nand_a_b $end
$var wire 1 #! w_nand_cin $end

$scope module xor_a_b $end
$var wire 1 F in1 $end
$var wire 1 V in2 $end
$var wire 1 !! out $end
$upscope $end

$scope module xor_cin_a_b $end
$var wire 1 s in1 $end
$var wire 1 !! in2 $end
$var wire 1 - out $end
$upscope $end

$scope module nand_a_b $end
$var wire 1 F in1 $end
$var wire 1 V in2 $end
$var wire 1 "! out $end
$upscope $end

$scope module nand_cin_a_xor_b $end
$var wire 1 !! in1 $end
$var wire 1 s in2 $end
$var wire 1 #! out $end
$upscope $end

$scope module nand_out $end
$var wire 1 "! in1 $end
$var wire 1 #! in2 $end
$var wire 1 ` out $end
$upscope $end
$upscope $end
$upscope $end

$scope module rca_lsb_2_4 $end
$var parameter 32 $! N $end
$var wire 1 B A [3] $end
$var wire 1 C A [2] $end
$var wire 1 D A [1] $end
$var wire 1 E A [0] $end
$var wire 1 R B [3] $end
$var wire 1 S B [2] $end
$var wire 1 T B [1] $end
$var wire 1 U B [0] $end
$var wire 1 ` C_in $end
$var wire 1 ) S [3] $end
$var wire 1 * S [2] $end
$var wire 1 + S [1] $end
$var wire 1 , S [0] $end
$var wire 1 _ C_out $end
$var wire 1 %! c_out [0] $end
$var wire 1 &! c_out [1] $end
$var wire 1 '! c_out [2] $end

$scope module adder_1b_0 $end
$var wire 1 E A $end
$var wire 1 U B $end
$var wire 1 ` C_in $end
$var wire 1 , S $end
$var wire 1 '! C_out $end
$var wire 1 (! w_a_xor_b $end
$var wire 1 )! w_nand_a_b $end
$var wire 1 *! w_nand_cin $end

$scope module xor_a_b $end
$var wire 1 E in1 $end
$var wire 1 U in2 $end
$var wire 1 (! out $end
$upscope $end

$scope module xor_cin_a_b $end
$var wire 1 ` in1 $end
$var wire 1 (! in2 $end
$var wire 1 , out $end
$upscope $end

$scope module nand_a_b $end
$var wire 1 E in1 $end
$var wire 1 U in2 $end
$var wire 1 )! out $end
$upscope $end

$scope module nand_cin_a_xor_b $end
$var wire 1 (! in1 $end
$var wire 1 ` in2 $end
$var wire 1 *! out $end
$upscope $end

$scope module nand_out $end
$var wire 1 )! in1 $end
$var wire 1 *! in2 $end
$var wire 1 '! out $end
$upscope $end
$upscope $end

$scope module adder_1b_1 $end
$var wire 1 D A $end
$var wire 1 T B $end
$var wire 1 '! C_in $end
$var wire 1 + S $end
$var wire 1 &! C_out $end
$var wire 1 +! w_a_xor_b $end
$var wire 1 ,! w_nand_a_b $end
$var wire 1 -! w_nand_cin $end

$scope module xor_a_b $end
$var wire 1 D in1 $end
$var wire 1 T in2 $end
$var wire 1 +! out $end
$upscope $end

$scope module xor_cin_a_b $end
$var wire 1 '! in1 $end
$var wire 1 +! in2 $end
$var wire 1 + out $end
$upscope $end

$scope module nand_a_b $end
$var wire 1 D in1 $end
$var wire 1 T in2 $end
$var wire 1 ,! out $end
$upscope $end

$scope module nand_cin_a_xor_b $end
$var wire 1 +! in1 $end
$var wire 1 '! in2 $end
$var wire 1 -! out $end
$upscope $end

$scope module nand_out $end
$var wire 1 ,! in1 $end
$var wire 1 -! in2 $end
$var wire 1 &! out $end
$upscope $end
$upscope $end

$scope module adder_1b_2 $end
$var wire 1 C A $end
$var wire 1 S B $end
$var wire 1 &! C_in $end
$var wire 1 * S $end
$var wire 1 %! C_out $end
$var wire 1 .! w_a_xor_b $end
$var wire 1 /! w_nand_a_b $end
$var wire 1 0! w_nand_cin $end

$scope module xor_a_b $end
$var wire 1 C in1 $end
$var wire 1 S in2 $end
$var wire 1 .! out $end
$upscope $end

$scope module xor_cin_a_b $end
$var wire 1 &! in1 $end
$var wire 1 .! in2 $end
$var wire 1 * out $end
$upscope $end

$scope module nand_a_b $end
$var wire 1 C in1 $end
$var wire 1 S in2 $end
$var wire 1 /! out $end
$upscope $end

$scope module nand_cin_a_xor_b $end
$var wire 1 .! in1 $end
$var wire 1 &! in2 $end
$var wire 1 0! out $end
$upscope $end

$scope module nand_out $end
$var wire 1 /! in1 $end
$var wire 1 0! in2 $end
$var wire 1 %! out $end
$upscope $end
$upscope $end

$scope module adder_1b_3 $end
$var wire 1 B A $end
$var wire 1 R B $end
$var wire 1 %! C_in $end
$var wire 1 ) S $end
$var wire 1 _ C_out $end
$var wire 1 1! w_a_xor_b $end
$var wire 1 2! w_nand_a_b $end
$var wire 1 3! w_nand_cin $end

$scope module xor_a_b $end
$var wire 1 B in1 $end
$var wire 1 R in2 $end
$var wire 1 1! out $end
$upscope $end

$scope module xor_cin_a_b $end
$var wire 1 %! in1 $end
$var wire 1 1! in2 $end
$var wire 1 ) out $end
$upscope $end

$scope module nand_a_b $end
$var wire 1 B in1 $end
$var wire 1 R in2 $end
$var wire 1 2! out $end
$upscope $end

$scope module nand_cin_a_xor_b $end
$var wire 1 1! in1 $end
$var wire 1 %! in2 $end
$var wire 1 3! out $end
$upscope $end

$scope module nand_out $end
$var wire 1 2! in1 $end
$var wire 1 3! in2 $end
$var wire 1 _ out $end
$upscope $end
$upscope $end
$upscope $end

$scope module rca_msb_4 $end
$var parameter 32 4! N $end
$var wire 1 > A [3] $end
$var wire 1 ? A [2] $end
$var wire 1 @ A [1] $end
$var wire 1 A A [0] $end
$var wire 1 N B [3] $end
$var wire 1 O B [2] $end
$var wire 1 P B [1] $end
$var wire 1 Q B [0] $end
$var wire 1 _ C_in $end
$var wire 1 % S [3] $end
$var wire 1 & S [2] $end
$var wire 1 ' S [1] $end
$var wire 1 ( S [0] $end
$var wire 1 5 C_out $end
$var wire 1 5! c_out [0] $end
$var wire 1 6! c_out [1] $end
$var wire 1 7! c_out [2] $end

$scope module adder_1b_0 $end
$var wire 1 A A $end
$var wire 1 Q B $end
$var wire 1 _ C_in $end
$var wire 1 ( S $end
$var wire 1 7! C_out $end
$var wire 1 8! w_a_xor_b $end
$var wire 1 9! w_nand_a_b $end
$var wire 1 :! w_nand_cin $end

$scope module xor_a_b $end
$var wire 1 A in1 $end
$var wire 1 Q in2 $end
$var wire 1 8! out $end
$upscope $end

$scope module xor_cin_a_b $end
$var wire 1 _ in1 $end
$var wire 1 8! in2 $end
$var wire 1 ( out $end
$upscope $end

$scope module nand_a_b $end
$var wire 1 A in1 $end
$var wire 1 Q in2 $end
$var wire 1 9! out $end
$upscope $end

$scope module nand_cin_a_xor_b $end
$var wire 1 8! in1 $end
$var wire 1 _ in2 $end
$var wire 1 :! out $end
$upscope $end

$scope module nand_out $end
$var wire 1 9! in1 $end
$var wire 1 :! in2 $end
$var wire 1 7! out $end
$upscope $end
$upscope $end

$scope module adder_1b_1 $end
$var wire 1 @ A $end
$var wire 1 P B $end
$var wire 1 7! C_in $end
$var wire 1 ' S $end
$var wire 1 6! C_out $end
$var wire 1 ;! w_a_xor_b $end
$var wire 1 <! w_nand_a_b $end
$var wire 1 =! w_nand_cin $end

$scope module xor_a_b $end
$var wire 1 @ in1 $end
$var wire 1 P in2 $end
$var wire 1 ;! out $end
$upscope $end

$scope module xor_cin_a_b $end
$var wire 1 7! in1 $end
$var wire 1 ;! in2 $end
$var wire 1 ' out $end
$upscope $end

$scope module nand_a_b $end
$var wire 1 @ in1 $end
$var wire 1 P in2 $end
$var wire 1 <! out $end
$upscope $end

$scope module nand_cin_a_xor_b $end
$var wire 1 ;! in1 $end
$var wire 1 7! in2 $end
$var wire 1 =! out $end
$upscope $end

$scope module nand_out $end
$var wire 1 <! in1 $end
$var wire 1 =! in2 $end
$var wire 1 6! out $end
$upscope $end
$upscope $end

$scope module adder_1b_2 $end
$var wire 1 ? A $end
$var wire 1 O B $end
$var wire 1 6! C_in $end
$var wire 1 & S $end
$var wire 1 5! C_out $end
$var wire 1 >! w_a_xor_b $end
$var wire 1 ?! w_nand_a_b $end
$var wire 1 @! w_nand_cin $end

$scope module xor_a_b $end
$var wire 1 ? in1 $end
$var wire 1 O in2 $end
$var wire 1 >! out $end
$upscope $end

$scope module xor_cin_a_b $end
$var wire 1 6! in1 $end
$var wire 1 >! in2 $end
$var wire 1 & out $end
$upscope $end

$scope module nand_a_b $end
$var wire 1 ? in1 $end
$var wire 1 O in2 $end
$var wire 1 ?! out $end
$upscope $end

$scope module nand_cin_a_xor_b $end
$var wire 1 >! in1 $end
$var wire 1 6! in2 $end
$var wire 1 @! out $end
$upscope $end

$scope module nand_out $end
$var wire 1 ?! in1 $end
$var wire 1 @! in2 $end
$var wire 1 5! out $end
$upscope $end
$upscope $end

$scope module adder_1b_3 $end
$var wire 1 > A $end
$var wire 1 N B $end
$var wire 1 5! C_in $end
$var wire 1 % S $end
$var wire 1 5 C_out $end
$var wire 1 A! w_a_xor_b $end
$var wire 1 B! w_nand_a_b $end
$var wire 1 C! w_nand_cin $end

$scope module xor_a_b $end
$var wire 1 > in1 $end
$var wire 1 N in2 $end
$var wire 1 A! out $end
$upscope $end

$scope module xor_cin_a_b $end
$var wire 1 5! in1 $end
$var wire 1 A! in2 $end
$var wire 1 % out $end
$upscope $end

$scope module nand_a_b $end
$var wire 1 > in1 $end
$var wire 1 N in2 $end
$var wire 1 B! out $end
$upscope $end

$scope module nand_cin_a_xor_b $end
$var wire 1 A! in1 $end
$var wire 1 5! in2 $end
$var wire 1 C! out $end
$upscope $end

$scope module nand_out $end
$var wire 1 B! in1 $end
$var wire 1 C! in2 $end
$var wire 1 5 out $end
$upscope $end
$upscope $end
$upscope $end
$upscope $end
$upscope $end
$enddefinitions $end
#0
$dumpvars
b11010100100100 !
b101111010000001 "
bx #
1$
19
1:
b10000 <
b100 =
b100 b
b100 r
b100 $!
b100 4!
b1 ;
04
13
12
01
00
1/
0.
1-
1,
1+
0*
0)
1(
0'
0&
1%
05
16
17
z8
1_
0`
0a
0c
0d
1e
1f
1g
0h
0i
1j
1k
1l
1m
1n
0o
1p
1q
0s
0t
0u
0v
1w
1x
1y
1z
1{
0|
1}
1~
1!!
1"!
1#!
1%!
0&!
0'!
1(!
1)!
1*!
1+!
1,!
1-!
0.!
0/!
10!
11!
12!
03!
15!
16!
17!
08!
09!
1:!
1;!
1<!
0=!
1>!
1?!
0@!
0A!
1B!
1C!
1^
1]
0\
0[
0Z
0Y
0X
0W
1V
0U
1T
1S
1R
1Q
0P
1O
0N
0M
0L
1K
0J
0I
1H
0G
0F
1E
0D
1C
0B
1A
1@
0?
0>
$end
#50
09
06
b1001001110100110 #
#100
19
16
b101011001100011 !
b111101100001101 "
b10 ;
1[
1Z
0V
1U
0S
1P
1M
1L
0K
1G
0E
1D
0@
1?
0>!
0?!
0+!
0,!
1|
1i
0f
0g
1.!
1/!
0!!
1o
11
0-
0%!
1*
14
1h
03
0k
1.
1&!
0+
1&
1@!
0*
00!
1d
1)
13!
0_
02
0n
1%!
0)
03!
1c
0(
01
0q
1_
1(
1a
10
#150
09
06
b1101000101110001 #
#200
19
16
b1000010001100101 !
b101001000010010 "
b11 ;
0]
1\
0[
0Z
1Y
0U
0R
0P
0L
1K
0D
0A
0?
1>
1A!
1>!
1?!
18!
19!
1+!
1,!
0;!
01!
0(!
1v
0o
1f
1g
0e
04
0h
11
1q
00
0x
0,
1)
13!
1'
1=!
0&!
1+
07!
0(
0:!
05!
0&
0@!
15!
17!
1*
10!
06!
0_
1u
0a
1e
10
1x
0/
0{
1(
1:!
1&
1@!
0%!
0%
0C!
15
0)
05!
07!
1t
0u
1/
1{
0.
0~
0'
1%
1C!
05
1s
0t
1.
1~
1-
0s
0-
#201
0:
07
#250
09
06
b1101011001111000 #
#300
19
16
b1100110100001101 !
b1111000101110110 "
b100 ;
1[
1X
1W
1U
0T
1P
1N
1J
0H
0G
1E
1B
1?
0>!
0?!
11!
0)!
1o
0A!
0B!
1;!
0+!
0l
0m
12
1n
0+
1'
15
0%
01
0q
1'!
1)
15!
0&
1%
1+
1a
00
0x
1u
0/
0{
1t
0.
0~
1s
1-
#350
09
06
b11011111010000100 #
#400
19
16
b101011111101101 !
b1111011110001100 "
b101 ;
0\
1Z
0Y
0X
0W
1V
1T
1S
1H
1G
1F
1D
0B
1A
0>
1A!
1B!
08!
09!
01!
0,!
0"!
0.!
0/!
0v
0o
0p
0i
13
1k
11
1q
10
1x
1%!
0*
1`
1&!
17!
0(
05
0%
0C!
15
0'
0=!
1*
1,
0u
0d
02
1/
1{
16!
1&
0t
1.
1~
0s
0-
#450
09
06
b10100111101111010 #
#500
19
16
b10010011000110 !
b1000010011000101 "
0$
b110 ;
1]
0Z
1W
0U
0T
0Q
0P
0O
0M
1L
0J
0H
0E
0D
0A
1@
0?
0^
14
1h
0y
1i
1?!
19!
1,!
1)!
0|
0}
1p
0a
1s
0.
0'!
0&!
07!
05!
03
0k
0/
0e
13
1k
1%
1C!
1'
1=!
0*
0+
1-
00
06!
05
0&
#550
09
06
b1010100110001011 #
#600
19
16
b1111011111100101 !
b111001001110111 "
b111 ;
1\
1Y
1X
0V
1T
0S
1Q
1P
1O
0N
1M
0L
1H
1E
1D
1A
1?
1>
0?!
09!
0,!
1(!
0z
0f
0g
0;!
0<!
1.!
1/!
1!!
1"!
1v
10
0`
0-
0#!
0%!
1*
16!
0'
1e
04
1t
1&!
17!
15!
0%
0C!
1'
0*
00!
1.
03
0k
1&
0)
1`
0,
0*!
1d
1%!
15
1)
12
1'!
1+
#650
09
06
b10110101001011100 #
#700
19
16
b1101101110001111 !
b110100111110010 "
b1000 ;
0]
0[
1V
1U
0T
1R
0Q
1L
1J
0H
0G
0C
1B
0@
1;!
1<!
02!
0.!
1|
1}
1y
1z
1o
0i
0j
18!
19!
1+!
1,!
0(!
0)!
0!!
0"!
1l
1m
1f
1g
0e
14
0c
02
0n
1-
1#!
1,
1*!
0&!
0+
0-!
07!
1(
1k
0t
1/
0s
10!
1_
06!
0&
0(
0:!
0%!
0-
1&!
1c
01
0q
1*
0)
17!
0'
0=!
1a
00
0x
16!
1&
1u
0/
0{
1t
0.
0~
1s
1-
#750
09
06
b10100010110000001 #
#800
19
16
b111101011101000 !
b100111011000101 "
b1001 ;
1]
0\
1[
0Y
0X
0U
1T
1S
0P
0M
0L
0K
1H
1G
0E
1@
0>
0A!
0|
0}
1.!
0+!
0,!
1)!
0v
1j
0d
10
1x
0'!
1-!
0*
00!
1.
1~
1%
1C!
05
1%!
0u
12
1n
0c
1/
1{
1)
0t
11
1q
0a
0.
00
#850
09
06
b1100100110101101 #
#900
19
16
b10100010111101 !
b101100000101101 "
1$
b1010 ;
1Z
1X
0W
0V
0T
0S
1Q
1M
1K
1I
0G
0D
0A
0?
1^
04
0h
1>!
1?!
1v
0l
0m
0f
0g
0.!
1,!
1!!
1"!
1}
0y
0z
0o
0p
1a
01
1t
0/
0s
0`
0&!
10!
14
1h
1c
02
05!
0&
0@!
1e
13
15!
11
0%!
0,
1.
0x
1u
0)
1/
#950
09
06
b1000000011101011 #
#1000
19
16
b110001001100011 !
b1000011100001010 "
0$
b1011 ;
0]
1\
0[
0X
1U
1T
1S
0R
0Q
0O
1N
1L
0K
0J
0I
1G
0F
1D
0B
1?
0^
04
0,!
0!!
1|
0v
1o
1p
0j
1A!
08!
12!
1.!
1(!
1y
1z
1m
1f
1g
0e
14
0c
0t
0/
0{
1,
1*
0_
1:!
0%
0C!
1d
0a
1x
0-
1&!
0*
00!
0u
12
15
07!
1t
03
0.
0~
1'
1=!
1/
1{
1%!
1)
0t
06!
1s
1-
1&
1@!
1.
1~
0s
05!
1%
1C!
0-
05
#1050
09
06
b1110100101101101 #
#1100
19
16
b10000100100000 !
b100010110101010 "
1$
b1100 ;
1X
1V
0T
1O
0N
0M
0L
0G
1E
0D
0?
1^
04
0h
0(!
0)!
0|
1i
1j
0f
0A!
1,!
1!!
0y
0z
1t
0/
1-
0&!
0%
14
1h
0d
13
1'!
0,
1+
02
1*
10!
0%!
0)
#1150
09
06
b110011011001011 #
#1200
19
16
b11111010010110 !
b1011100000010011 "
b1101 ;
1]
0Z
1Y
0X
0V
0U
0S
1R
1Q
1P
0O
1N
1L
1K
1I
0H
1F
0E
1D
1C
1B
1A
09!
02!
1+!
0w
1l
0i
0j
1A!
0>!
0;!
0<!
1)!
1z
0o
1f
04
0h
01
0t
0'!
16!
0'
1%
1d
03
1u
1_
17!
1'
1(
1/
0n
0.
1e
13
1c
11
#1250
09
06
b1111011010101010 #
#1300
19
16
b1101011001010011 !
b1101110101101011 "
b1110 ;
1Z
0Y
1X
1W
1U
1S
0P
1O
1M
0K
1G
0F
0B
0@
1?
1>
0A!
0B!
0?!
11!
12!
0!!
0}
0l
0f
0g
1<!
0.!
0/!
1(!
1y
1v
1w
1o
01
0q
0u
10
1,
1%!
0*
06!
14
1h
12
1n
1s
0_
15!
15
0(
0c
0&
03!
1a
00
0x
1_
11
1q
0a
1(
1u
0/
0{
10
1x
0u
1t
1.
1/
1{
0t
0.
#1350
09
06
b11011001110111111 #
#1400
19
16
b100101000000010 !
b11111010101110 "
b1111 ;
0]
1[
0W
1V
0U
1T
1P
0O
0N
0M
0I
0G
0C
1B
0A
0>
18!
19!
01!
02!
1.!
1/!
0v
1B!
1>!
1?!
1;!
0+!
0,!
0(!
1!!
1}
1l
1g
0e
02
0n
0s
0,
1&!
0+
0'
0=!
05!
1&
05
00
0%!
13!
07!
0(
0:!
17!
0%
16!
00!
1c
03
01
0q
1%!
0&
0@!
15!
1)
1a
10
1%
#1450
09
06
b1000100010110001 #
#1500
19
16
b111001011001111 !
b100100100100011 "
0$
b10000 ;
1]
0[
0Z
0V
1U
0T
0S
0Q
0P
1O
1M
1K
1J
1G
1F
0B
1A
1@
0^
04
11!
12!
1|
0g
0>!
0?!
0.!
1+!
1,!
1(!
1,
0&!
1+
10!
1&
1@!
1e
1.
0_
0)
03!
1_
13
0%!
1)
13!
0_
1(
1:!
07!
1'
1=!
06!
0&
#1550
09
06
b1011101111110010 #
#1600
19
16
b101011001010 !
b100110000111100 "
b10001 ;
0]
0\
1[
1Z
1Y
0U
1S
0M
0K
1B
0A
0@
0?
1>!
1?!
0;!
08!
01!
02!
1.!
0(!
1v
0o
0p
1i
1j
1g
0e
0d
11
1q
00
0x
0,
1*
1_
0)
0'
05!
1&
0%
1u
12
1n
0c
0/
0{
1t
01
0.
0~
1s
0-
0#!
1`
1,
#1650
09
06
b101011100000110 #
#1700
19
16
b110000110001010 !
b1011001101000001 "
b10010 ;
1]
0[
0Z
0Y
0X
1W
1U
1T
0S
0R
1Q
1P
0O
1N
0G
1E
0D
0B
1@
1?
0<!
0)!
1A!
18!
12!
0.!
0y
0v
1o
1p
0l
1f
14
02
0a
11
1x
1/
1{
0*
0_
1%
1'!
16!
0&
0@!
0+
0-!
0t
0u
0/
1.
1~
1&!
15!
0%
0C!
1*
0s
1-
1#!
15
0`
0,
#1750
09
06
b10001010011001011 #
#1800
19
16
b1111001101111000 !
b1001010001001 "
1$
b10011 ;
1Z
0W
1V
0U
0P
0N
0L
1I
1H
1G
0F
1D
1A
1>
1^
04
0h
08!
09!
0+!
0,!
1y
1v
0i
1;!
1<!
1(!
1)!
0o
0p
1a
01
0'!
1,
06!
1'
03
1/
1-!
17!
0(
1e
13
0'
0=!
1&
1@!
0x
1u
05!
16!
0&
0@!
1%
1C!
0/
0{
1t
05
15!
0%
0C!
0.
0~
1s
15
0-
0#!
1`
0,
0*!
1'!
1+
