hw3_2/transcript
# vsim -c rca_16b_bench -lib __work 
# Start time: 21:13:07 on Feb 15,2019
# //  ModelSim DE 10.7c Aug 17 2018Linux 4.15.0-45-generic
# //
# //  Copyright 1991-2018 Mentor Graphics Corporation
# //  All Rights Reserved.
# //
# //  ModelSim DE and its associated documentation contain trade
# //  secrets and commercial or financial information that are the property of
# //  Mentor Graphics Corporation and are privileged, confidential,
# //  and exempt from disclosure under the Freedom of Information Act,
# //  5 U.S.C. Section 552. Furthermore, this information
# //  is prohibited from disclosure under the Trade Secrets Act,
# //  18 U.S.C. Section 1905.
# //
# Loading __work.rca_16b_bench
# Loading __work.clkrst
# Loading __work.rca_16b
# Loading __work.rca_4b
# Loading __work.fullAdder_1b
# Loading __work.xor2
# Loading __work.nand2
run -all
# A: 03524, B: 05e81, Sum: 93a6
# A: 05663, B: 07b0d, Sum: d171
# A: 08465, B: 05212, Sum: d678
# A: 0cd0d, B: 0f176, Sum: be84
# A: 057ed, B: 0f78c, Sum: 4f7a
# A: 024c6, B: 084c5, Sum: a98b
# A: 0f7e5, B: 07277, Sum: 6a5c
# A: 0db8f, B: 069f2, Sum: 4581
# A: 07ae8, B: 04ec5, Sum: c9ad
# A: 028bd, B: 0582d, Sum: 80eb
# A: 06263, B: 0870a, Sum: e96d
# A: 02120, B: 045aa, Sum: 66cb
# A: 03e96, B: 0b813, Sum: f6aa
# A: 0d653, B: 0dd6b, Sum: b3bf
# A: 04a02, B: 03eae, Sum: 88b1
# A: 072cf, B: 04923, Sum: bbf2
# A: 00aca, B: 04c3c, Sum: 5706
# A: 0618a, B: 0b341, Sum: 14cb
# A: 0f378, B: 01289, Sum: 0602
# A: 065b6, B: 0f9c6, Sum: 5f7c
# A: 002bc, B: 0dd2a, Sum: dfe7
# A: 0be71, B: 04185, Sum: fff7
# A: 0603b, B: 0333a, Sum: 9375
# A: 04b15, B: 09bf1, Sum: e707
# A: 00762, B: 0fb4c, Sum: 02af
# A: 0a18f, B: 0a9f8, Sum: 4b88
# A: 0569f, B: 0945c, Sum: eafc
# A: 03789, B: 03249, Sum: 69d2
# A: 0c0d7, B: 0fc51, Sum: bd28
# A: 07f0c, B: 0cec2, Sum: 4dce
# A: 05a77, B: 0ed3d, Sum: 47b4
# A: 0007e, B: 0816d, Sum: 81ec
# ** Note: $finish    : rca_16b_bench.v(20)
#    Time: 3200 ns  Iteration: 0  Instance: /rca_16b_bench
# End time: 21:13:07 on Feb 15,2019, Elapsed time: 0:00:00
# Errors: 0, Warnings: 0
