hw3_1/dump.vcd
$date
	Fri Feb 15 21:18:06 2019
$end
$version
	ModelSim Version 10.7c
$end
$timescale
	1ns
$end

$scope module mux4_1_4b_bench $end
$var reg 4 ! InA [3:0] $end
$var reg 4 " InB [3:0] $end
$var reg 4 # InC [3:0] $end
$var reg 4 $ InD [3:0] $end
$var reg 2 % S [1:0] $end
$var wire 1 & Out [3] $end
$var wire 1 ' Out [2] $end
$var wire 1 ( Out [1] $end
$var wire 1 ) Out [0] $end
$var wire 1 * Clk $end
$var wire 1 + rst $end
$var wire 1 , err $end

$scope module my_clkrst $end
$var reg 1 - clk $end
$var reg 1 . rst $end
$var wire 1 , err $end
$var integer 32 / cycle_count $end
$upscope $end

$scope module DUT $end
$var parameter 32 0 N $end
$var wire 1 1 InA [3] $end
$var wire 1 2 InA [2] $end
$var wire 1 3 InA [1] $end
$var wire 1 4 InA [0] $end
$var wire 1 5 InB [3] $end
$var wire 1 6 InB [2] $end
$var wire 1 7 InB [1] $end
$var wire 1 8 InB [0] $end
$var wire 1 9 InC [3] $end
$var wire 1 : InC [2] $end
$var wire 1 ; InC [1] $end
$var wire 1 < InC [0] $end
$var wire 1 = InD [3] $end
$var wire 1 > InD [2] $end
$var wire 1 ? InD [1] $end
$var wire 1 @ InD [0] $end
$var wire 1 A S [1] $end
$var wire 1 B S [0] $end
$var wire 1 & Out [3] $end
$var wire 1 ' Out [2] $end
$var wire 1 ( Out [1] $end
$var wire 1 ) Out [0] $end

$scope module mux_1b_0 $end
$var wire 1 4 InA $end
$var wire 1 8 InB $end
$var wire 1 < InC $end
$var wire 1 @ InD $end
$var wire 1 A S [1] $end
$var wire 1 B S [0] $end
$var wire 1 ) Out $end
$var wire 1 C A_B_sel $end
$var wire 1 D C_D_sel $end

$scope module mux_A_B $end
$var wire 1 4 InA $end
$var wire 1 8 InB $end
$var wire 1 B S $end
$var wire 1 C Out $end
$var wire 1 E nAS $end
$var wire 1 F nBS $end
$var wire 1 G nS $end

$scope module not_S $end
$var wire 1 B in1 $end
$var wire 1 G out $end
$upscope $end

$scope module nand_sel_a $end
$var wire 1 4 in1 $end
$var wire 1 G in2 $end
$var wire 1 E out $end
$upscope $end

$scope module nand_sel_b $end
$var wire 1 8 in1 $end
$var wire 1 B in2 $end
$var wire 1 F out $end
$upscope $end

$scope module nand_out $end
$var wire 1 E in1 $end
$var wire 1 F in2 $end
$var wire 1 C out $end
$upscope $end
$upscope $end

$scope module mux_C_D $end
$var wire 1 < InA $end
$var wire 1 @ InB $end
$var wire 1 B S $end
$var wire 1 D Out $end
$var wire 1 H nAS $end
$var wire 1 I nBS $end
$var wire 1 J nS $end

$scope module not_S $end
$var wire 1 B in1 $end
$var wire 1 J out $end
$upscope $end

$scope module nand_sel_a $end
$var wire 1 < in1 $end
$var wire 1 J in2 $end
$var wire 1 H out $end
$upscope $end

$scope module nand_sel_b $end
$var wire 1 @ in1 $end
$var wire 1 B in2 $end
$var wire 1 I out $end
$upscope $end

$scope module nand_out $end
$var wire 1 H in1 $end
$var wire 1 I in2 $end
$var wire 1 D out $end
$upscope $end
$upscope $end

$scope module mux_out $end
$var wire 1 C InA $end
$var wire 1 D InB $end
$var wire 1 A S $end
$var wire 1 ) Out $end
$var wire 1 K nAS $end
$var wire 1 L nBS $end
$var wire 1 M nS $end

$scope module not_S $end
$var wire 1 A in1 $end
$var wire 1 M out $end
$upscope $end

$scope module nand_sel_a $end
$var wire 1 C in1 $end
$var wire 1 M in2 $end
$var wire 1 K out $end
$upscope $end

$scope module nand_sel_b $end
$var wire 1 D in1 $end
$var wire 1 A in2 $end
$var wire 1 L out $end
$upscope $end

$scope module nand_out $end
$var wire 1 K in1 $end
$var wire 1 L in2 $end
$var wire 1 ) out $end
$upscope $end
$upscope $end
$upscope $end

$scope module mux_1b_1 $end
$var wire 1 3 InA $end
$var wire 1 7 InB $end
$var wire 1 ; InC $end
$var wire 1 ? InD $end
$var wire 1 A S [1] $end
$var wire 1 B S [0] $end
$var wire 1 ( Out $end
$var wire 1 N A_B_sel $end
$var wire 1 O C_D_sel $end

$scope module mux_A_B $end
$var wire 1 3 InA $end
$var wire 1 7 InB $end
$var wire 1 B S $end
$var wire 1 N Out $end
$var wire 1 P nAS $end
$var wire 1 Q nBS $end
$var wire 1 R nS $end

$scope module not_S $end
$var wire 1 B in1 $end
$var wire 1 R out $end
$upscope $end

$scope module nand_sel_a $end
$var wire 1 3 in1 $end
$var wire 1 R in2 $end
$var wire 1 P out $end
$upscope $end

$scope module nand_sel_b $end
$var wire 1 7 in1 $end
$var wire 1 B in2 $end
$var wire 1 Q out $end
$upscope $end

$scope module nand_out $end
$var wire 1 P in1 $end
$var wire 1 Q in2 $end
$var wire 1 N out $end
$upscope $end
$upscope $end

$scope module mux_C_D $end
$var wire 1 ; InA $end
$var wire 1 ? InB $end
$var wire 1 B S $end
$var wire 1 O Out $end
$var wire 1 S nAS $end
$var wire 1 T nBS $end
$var wire 1 U nS $end

$scope module not_S $end
$var wire 1 B in1 $end
$var wire 1 U out $end
$upscope $end

$scope module nand_sel_a $end
$var wire 1 ; in1 $end
$var wire 1 U in2 $end
$var wire 1 S out $end
$upscope $end

$scope module nand_sel_b $end
$var wire 1 ? in1 $end
$var wire 1 B in2 $end
$var wire 1 T out $end
$upscope $end

$scope module nand_out $end
$var wire 1 S in1 $end
$var wire 1 T in2 $end
$var wire 1 O out $end
$upscope $end
$upscope $end

$scope module mux_out $end
$var wire 1 N InA $end
$var wire 1 O InB $end
$var wire 1 A S $end
$var wire 1 ( Out $end
$var wire 1 V nAS $end
$var wire 1 W nBS $end
$var wire 1 X nS $end

$scope module not_S $end
$var wire 1 A in1 $end
$var wire 1 X out $end
$upscope $end

$scope module nand_sel_a $end
$var wire 1 N in1 $end
$var wire 1 X in2 $end
$var wire 1 V out $end
$upscope $end

$scope module nand_sel_b $end
$var wire 1 O in1 $end
$var wire 1 A in2 $end
$var wire 1 W out $end
$upscope $end

$scope module nand_out $end
$var wire 1 V in1 $end
$var wire 1 W in2 $end
$var wire 1 ( out $end
$upscope $end
$upscope $end
$upscope $end

$scope module mux_1b_2 $end
$var wire 1 2 InA $end
$var wire 1 6 InB $end
$var wire 1 : InC $end
$var wire 1 > InD $end
$var wire 1 A S [1] $end
$var wire 1 B S [0] $end
$var wire 1 ' Out $end
$var wire 1 Y A_B_sel $end
$var wire 1 Z C_D_sel $end

$scope module mux_A_B $end
$var wire 1 2 InA $end
$var wire 1 6 InB $end
$var wire 1 B S $end
$var wire 1 Y Out $end
$var wire 1 [ nAS $end
$var wire 1 \ nBS $end
$var wire 1 ] nS $end

$scope module not_S $end
$var wire 1 B in1 $end
$var wire 1 ] out $end
$upscope $end

$scope module nand_sel_a $end
$var wire 1 2 in1 $end
$var wire 1 ] in2 $end
$var wire 1 [ out $end
$upscope $end

$scope module nand_sel_b $end
$var wire 1 6 in1 $end
$var wire 1 B in2 $end
$var wire 1 \ out $end
$upscope $end

$scope module nand_out $end
$var wire 1 [ in1 $end
$var wire 1 \ in2 $end
$var wire 1 Y out $end
$upscope $end
$upscope $end

$scope module mux_C_D $end
$var wire 1 : InA $end
$var wire 1 > InB $end
$var wire 1 B S $end
$var wire 1 Z Out $end
$var wire 1 ^ nAS $end
$var wire 1 _ nBS $end
$var wire 1 ` nS $end

$scope module not_S $end
$var wire 1 B in1 $end
$var wire 1 ` out $end
$upscope $end

$scope module nand_sel_a $end
$var wire 1 : in1 $end
$var wire 1 ` in2 $end
$var wire 1 ^ out $end
$upscope $end

$scope module nand_sel_b $end
$var wire 1 > in1 $end
$var wire 1 B in2 $end
$var wire 1 _ out $end
$upscope $end

$scope module nand_out $end
$var wire 1 ^ in1 $end
$var wire 1 _ in2 $end
$var wire 1 Z out $end
$upscope $end
$upscope $end

$scope module mux_out $end
$var wire 1 Y InA $end
$var wire 1 Z InB $end
$var wire 1 A S $end
$var wire 1 ' Out $end
$var wire 1 a nAS $end
$var wire 1 b nBS $end
$var wire 1 c nS $end

$scope module not_S $end
$var wire 1 A in1 $end
$var wire 1 c out $end
$upscope $end

$scope module nand_sel_a $end
$var wire 1 Y in1 $end
$var wire 1 c in2 $end
$var wire 1 a out $end
$upscope $end

$scope module nand_sel_b $end
$var wire 1 Z in1 $end
$var wire 1 A in2 $end
$var wire 1 b out $end
$upscope $end

$scope module nand_out $end
$var wire 1 a in1 $end
$var wire 1 b in2 $end
$var wire 1 ' out $end
$upscope $end
$upscope $end
$upscope $end

$scope module mux_1b_3 $end
$var wire 1 1 InA $end
$var wire 1 5 InB $end
$var wire 1 9 InC $end
$var wire 1 = InD $end
$var wire 1 A S [1] $end
$var wire 1 B S [0] $end
$var wire 1 & Out $end
$var wire 1 d A_B_sel $end
$var wire 1 e C_D_sel $end

$scope module mux_A_B $end
$var wire 1 1 InA $end
$var wire 1 5 InB $end
$var wire 1 B S $end
$var wire 1 d Out $end
$var wire 1 f nAS $end
$var wire 1 g nBS $end
$var wire 1 h nS $end

$scope module not_S $end
$var wire 1 B in1 $end
$var wire 1 h out $end
$upscope $end

$scope module nand_sel_a $end
$var wire 1 1 in1 $end
$var wire 1 h in2 $end
$var wire 1 f out $end
$upscope $end

$scope module nand_sel_b $end
$var wire 1 5 in1 $end
$var wire 1 B in2 $end
$var wire 1 g out $end
$upscope $end

$scope module nand_out $end
$var wire 1 f in1 $end
$var wire 1 g in2 $end
$var wire 1 d out $end
$upscope $end
$upscope $end

$scope module mux_C_D $end
$var wire 1 9 InA $end
$var wire 1 = InB $end
$var wire 1 B S $end
$var wire 1 e Out $end
$var wire 1 i nAS $end
$var wire 1 j nBS $end
$var wire 1 k nS $end

$scope module not_S $end
$var wire 1 B in1 $end
$var wire 1 k out $end
$upscope $end

$scope module nand_sel_a $end
$var wire 1 9 in1 $end
$var wire 1 k in2 $end
$var wire 1 i out $end
$upscope $end

$scope module nand_sel_b $end
$var wire 1 = in1 $end
$var wire 1 B in2 $end
$var wire 1 j out $end
$upscope $end

$scope module nand_out $end
$var wire 1 i in1 $end
$var wire 1 j in2 $end
$var wire 1 e out $end
$upscope $end
$upscope $end

$scope module mux_out $end
$var wire 1 d InA $end
$var wire 1 e InB $end
$var wire 1 A S $end
$var wire 1 & Out $end
$var wire 1 l nAS $end
$var wire 1 m nBS $end
$var wire 1 n nS $end

$scope module not_S $end
$var wire 1 A in1 $end
$var wire 1 n out $end
$upscope $end

$scope module nand_sel_a $end
$var wire 1 d in1 $end
$var wire 1 n in2 $end
$var wire 1 l out $end
$upscope $end

$scope module nand_sel_b $end
$var wire 1 e in1 $end
$var wire 1 A in2 $end
$var wire 1 m out $end
$upscope $end

$scope module nand_out $end
$var wire 1 l in1 $end
$var wire 1 m in2 $end
$var wire 1 & out $end
$upscope $end
$upscope $end
$upscope $end
$upscope $end
$upscope $end
$enddefinitions $end
#0
$dumpvars
b100 !
b1 "
b1001 #
b11 $
b1 %
1-
1.
b100 0
b1 /
1)
0(
0'
0&
1*
1+
z,
1C
1D
1E
0F
0G
1H
0I
0J
0K
1L
1M
0N
1O
1P
1Q
0R
1S
0T
0U
1V
1W
1X
0Y
0Z
1[
1\
0]
1^
1_
0`
1a
1b
1c
0d
0e
1f
1g
0h
1i
1j
0k
1l
1m
1n
1B
0A
1@
1?
0>
0=
1<
0;
0:
19
18
07
06
05
04
03
12
01
$end
#50
0-
0*
#100
1-
1*
b1101 !
b101 "
b10 #
b1 $
b10 /
0?
0<
1;
09
16
14
11
0\
1T
0O
1Y
0a
1'
#150
0-
0*
#200
1-
1*
b110 !
b1101 "
b1101 #
b1100 $
b11 /
0@
1>
1=
1<
0;
1:
19
15
04
13
01
0g
0j
0_
1I
0D
1Z
1e
1d
0l
1&
#201
0.
0+
#250
0-
0*
#300
1-
1*
b101 "
b1010 #
b101 $
b11 %
b100 /
1A
1@
0=
0<
1;
0:
05
1g
1j
0I
0M
0X
0c
0b
0n
0m
1l
1a
1K
1D
0e
0d
1m
0L
0&
#350
0-
0*
#400
1-
1*
b10 !
b1111 "
b10 #
b1110 $
b0 %
b101 /
0B
0A
0@
1?
1=
09
17
15
02
1M
1L
1X
1c
1b
1n
1G
1F
1J
1I
1R
1U
1]
1\
1`
1_
1h
1k
0Z
0Y
0S
0P
0D
0C
0'
0)
1N
1O
0V
1(
#450
0-
0*
#500
1-
1*
b101 !
b1100 "
b1101 #
b1101 $
b1 %
b110 /
1B
1@
0?
1<
0;
1:
19
08
07
14
03
12
0[
1P
0E
0i
0^
1S
0H
0I
0G
0J
0R
0U
0]
0\
0`
0_
0h
0g
0k
0j
1i
1d
1^
1[
1H
1E
1D
0O
1Z
1e
0N
1Y
0a
1V
0l
1&
0(
1'
#550
0-
0*
#600
1-
1*
b11 !
b1010 "
b0 #
b0 $
b10 %
b111 /
0B
1A
0@
0>
0=
0<
0:
09
17
06
13
02
0M
0L
0X
0c
0b
0n
0m
1G
1J
1I
1R
1U
1]
1\
1`
1_
1h
1g
1k
1j
0e
0d
0Z
0Y
0P
0D
0E
1l
1a
1)
1C
1L
1N
1b
1m
0&
0'
0)
#650
0-
0*
#700
1-
1*
b1101 !
b110 "
b11 #
b1101 $
b11 %
b1000 /
1B
1@
1>
1=
1<
1;
16
05
03
12
11
0f
0[
1P
0\
0S
0H
0j
0_
0I
0G
0J
0R
0Q
0U
0]
0`
0h
0k
1f
1[
1S
1H
1E
1Z
1e
1D
1Y
0L
0m
0b
0C
1'
1&
1)
#750
0-
0*
#800
1-
1*
b1011 !
b101 "
b10 #
b1110 $
b1 %
b1001 /
0A
0@
1?
0<
18
07
13
02
1Q
0F
0T
1I
1M
1L
1X
1c
1b
1n
1m
0&
0'
0a
0V
0)
0D
1O
1C
0N
1V
0K
1'
1)
#850
0-
0*
#900
1-
1*
b1111 !
b11 "
b1010 #
b1010 $
b0 %
b1010 /
0B
0>
19
17
06
12
1G
1F
1J
1R
1U
1T
1]
1\
1`
1_
1h
1k
1j
0e
0i
0f
0Z
0Y
0[
0O
0S
0P
0C
0E
1C
1N
1O
1Y
1d
1e
0l
0V
1(
1&
#950
0-
0*
#1000
1-
1*
b10 !
b1010 "
b1 #
b1000 $
b1011 /
0?
1<
0;
09
08
15
04
02
01
1f
1[
1E
1i
1S
0H
1D
0O
0e
0C
0Y
0d
1l
1a
1K
0)
0'
0&
#1050
0-
0*
#1100
1-
1*
b1001 !
b1011 "
b110 #
b110 $
b10 %
b1100 /
1A
1?
1>
0=
0<
1;
1:
18
14
03
11
0f
1P
0E
0^
0S
1H
0M
0L
0X
0c
0n
1V
1)
0D
1O
1Z
1C
0N
1d
0b
0W
1L
0)
1'
#1150
0-
0*
#1200
1-
1*
b1100 !
b1010 "
b1011 #
b1 $
b1 %
b1101 /
1B
0A
1@
0?
0>
1<
0:
19
08
04
12
0[
1E
0i
1^
0H
0I
1M
1X
1W
1c
1b
1n
0G
0J
0R
0Q
0U
0]
0`
0h
0g
0k
1i
1f
1[
1S
1N
1H
0l
0'
0(
0K
1D
0Z
0C
1K
1&
0V
0O
1(
#1250
0-
0*
#1300
1-
1*
b1111 !
b1011 "
b1010 #
b1110 $
b1110 /
0@
1?
1>
1=
0<
18
14
13
0F
0j
0_
0T
1I
0D
1O
1Z
1e
1C
0K
1)
#1350
0-
0*
#1400
1-
1*
b1 !
b1001 "
b10 #
b1100 $
b11 %
b1111 /
1A
0?
09
07
03
02
01
1Q
1T
0M
0X
0W
0c
0b
0n
0m
1l
1'
1V
1K
0O
0N
1W
0)
0(
#1450
0-
0*
#1500
1-
1*
b1111 !
b1000 "
b111 #
b1111 $
b0 %
b10000 /
0B
0A
1@
1?
1<
1:
08
13
12
11
1M
1X
1c
1b
1n
1m
1G
1F
1J
1R
1U
1]
1`
1_
1h
1g
1k
1j
0e
0d
0f
0Z
0^
0[
0S
0P
0H
0C
0E
0&
0'
1C
1D
1N
1O
1Y
1Z
1d
0l
0a
0V
0K
1)
1(
1'
1&
#1550
0-
0*
#1600
1-
1*
b1011 !
b1001 "
b1001 #
b0 $
b11 %
b10001 /
1B
1A
0@
0?
0>
0=
0;
0:
19
18
02
1[
0F
0i
1^
1S
0M
0L
0X
0W
0c
0b
0n
0G
0J
0R
0U
0]
0`
0h
0g
0k
1i
1f
1P
1H
1E
1l
1a
1V
1K
0O
0Z
0Y
1b
1W
0&
0D
0N
1L
0(
0'
0)
#1650
0-
0*
#1700
1-
1*
b1 !
b110 "
b1100 #
b10 $
b0 %
b10010 /
0B
0A
1?
0<
1:
08
17
16
05
03
01
1M
1X
1c
1n
1G
1F
1J
1R
1U
1]
1`
1h
1g
1k
0i
0d
0^
0C
0E
1C
1Z
1e
0K
1)
#1750
0-
0*
#1800
1-
1*
b111 !
b1101 "
b10 #
b1110 $
b1 %
b10011 /
1B
1>
1=
1;
0:
09
18
07
15
13
12
0[
0P
0g
0F
1i
1^
0S
0j
0_
0G
0J
0R
0U
0T
0]
0\
0`
0h
0k
1[
1S
1P
1E
1O
1d
1Y
0a
0l
1&
1'
#1850
0-
0*
#1900
1-
1*
b1001 !
b1111 "
b11 #
b101 $
b0 %
b10100 /
0B
1@
0?
0=
1<
17
03
02
11
1G
1F
1J
1R
1U
1T
1]
1\
1`
1_
1h
1g
1k
1j
0e
0d
0f
0Z
0Y
0O
0S
0H
0C
0E
1C
1D
1O
1a
1d
0'
#1950
0-
0*
#2000
1-
1*
b1011 !
b1001 "
b1111 #
b1010 $
b10101 /
0@
1?
0>
1=
1:
19
07
06
13
0P
0i
0^
1Z
1e
1N
0V
1(
#2050
0-
0*
#2100
1-
1*
b110 !
b1110 "
b1100 #
b10 %
b10110 /
1A
0<
0;
08
17
16
04
12
01
1f
0[
1E
1S
1H
0M
0L
0X
0W
0c
0b
0n
0m
1l
1'
1V
1K
0D
0O
0C
1Y
0d
1W
1L
0)
0(
#2150
0-
0*
#2200
1-
1*
b11 !
b11 "
b1111 #
b11 $
b11 %
b10111 /
1B
1@
0=
1<
1;
18
06
05
14
02
1[
0E
0F
0S
0H
0I
0G
0J
0R
0Q
0U
0T
0]
0`
0h
0k
1i
1^
1S
1P
1H
1E
1D
1O
1C
0Y
0W
0L
0Z
0e
1m
1b
1)
1(
0'
0&
#2250
0-
0*
#2300
1-
1*
b100 !
b111 "
b1011 #
b110 $
b10 %
b11000 /
0B
0@
1>
0:
16
04
03
12
1G
1F
1J
1I
1R
1Q
1U
1T
1]
1`
1h
1k
0i
0[
0O
0S
0N
0D
0H
0C
1D
1O
1Y
1e
0m
1&
#2350
0-
0*
#2400
1-
1*
b1001 !
b1101 "
b1010 #
b101 $
b1 %
b11001 /
1B
0A
1@
0?
0<
07
15
14
02
11
0f
1[
0E
0g
1H
0I
1M
1L
1X
1W
1c
1n
1m
0G
0F
0J
0R
0U
0]
0\
0`
0_
0h
0k
1i
1f
1Z
1S
1E
0&
0a
0(
0)
1C
1d
0l
0K
1'
0O
0e
1)
1&
#2450
0-
0*
#2500
1-
1*
b1111 !
b1001 "
b100 #
b0 $
b10 %
b11010 /
0B
1A
0@
0>
0;
1:
09
06
13
12
0M
0L
0X
0c
0b
0n
1G
1F
1J
1I
1R
1U
1]
1\
1`
1_
1h
1g
1k
0d
0f
0Z
0^
0Y
0[
0P
0D
0C
0E
1l
1a
1K
0&
1C
1L
1N
1Y
1Z
1d
0)
#2550
0-
0*
#2600
1-
1*
b1011 !
b1110 "
b1100 #
b1010 $
b1 %
b11011 /
1B
0A
1?
1=
19
08
17
16
02
1[
0\
0Q
0i
0j
0T
1M
1X
1c
1b
1n
0G
0J
0R
0U
0]
0`
0h
0g
0k
1i
1f
1^
1P
1E
0l
0'
0a
0V
0K
1O
1e
1)
1(
1'
1&
0C
0Z
1K
0)
#2650
0-
0*
#2700
1-
1*
b11 !
b110 "
b1110 #
b111 $
b10 %
b11100 /
0B
1A
1@
1>
0=
1;
05
01
0M
0X
0W
0c
0n
0m
1G
1J
1R
1Q
1U
1T
1]
1\
1`
1h
1g
1k
1j
0e
0i
0d
0^
0Y
0O
0S
0N
0P
0E
1l
1a
1V
0'
1C
1N
1O
1Z
1e
0b
1'
#2750
0-
0*
#2800
1-
1*
b110 !
b1000 "
b1001 #
b1000 $
b0 %
b11101 /
0A
0@
0?
0>
1=
1<
0;
0:
07
06
15
04
12
0[
1E
1^
1S
0H
1M
1X
1W
1c
1b
1n
1m
0&
0'
0(
0V
0K
1D
0O
0Z
0C
1Y
0a
1K
1(
1'
#2850
0-
0*
#2900
1-
1*
b11 !
b100 "
b1011 $
b1 %
b11110 /
1B
1@
1?
16
05
14
02
1[
0E
0\
0T
0I
0G
0J
0R
0U
0]
0`
0h
0k
0j
1i
1P
1H
1E
1O
0N
1V
0(
#2950
0-
0*
#3000
1-
1*
b1001 !
b1101 "
b110 #
b1010 $
b10 %
b11111 /
0B
1A
0@
0<
1;
1:
09
18
15
03
11
0M
0L
0X
0W
0c
0n
0m
1G
1J
1I
1R
1U
1T
1]
1\
1`
1h
1k
1j
0e
0f
0^
0Y
0O
0S
0D
0E
1&
1a
1(
1)
0'
1C
1L
1O
1Z
1d
1m
0&
0b
0)
1'
#3050
0-
0*
#3100
1-
1*
b101 !
b110 "
b100 #
b111 $
b1 %
b100000 /
1B
0A
1@
1>
0=
0;
08
17
05
12
01
1f
0[
0Q
1S
0_
0I
1M
1X
1W
1c
1b
1n
0G
0J
0R
0U
0T
0]
0\
0`
0h
0k
1^
1[
1E
0l
0'
0(
0K
1D
1N
1Y
0d
1l
0a
0V
1)
0C
1K
1(
1'
0)
